^C:\USERS\PABLOCHU\DOCUMENTS\TOONENGINE\GAME\UNITTEST\STDAFX.CPP|C:\USERS\PABLOCHU\DOCUMENTS\TOONENGINE\GAME\UNITTEST\UNITTEST.CPP
C:\USERS\PABLOCHU\DOCUMENTS\TOONENGINE\GAME\UNITTEST\X64\DEBUG\UNITTEST.PCH
C:\USERS\PABLOCHU\DOCUMENTS\TOONENGINE\GAME\UNITTEST\X64\DEBUG\VC141.PDB
C:\USERS\PABLOCHU\DOCUMENTS\TOONENGINE\GAME\UNITTEST\X64\DEBUG\VC141.IDB
C:\USERS\PABLOCHU\DOCUMENTS\TOONENGINE\GAME\UNITTEST\X64\DEBUG\STDAFX.OBJ
C:\USERS\PABLOCHU\DOCUMENTS\TOONENGINE\GAME\UNITTEST\X64\DEBUG\UNITTEST.OBJ
^C:\USERS\PABLOCHU\DOCUMENTS\TOONENGINE\GAME\UNITTEST\STDAFX.CPP
C:\USERS\PABLOCHU\DOCUMENTS\TOONENGINE\GAME\UNITTEST\X64\DEBUG\VC141.PDB
^C:\USERS\PABLOCHU\DOCUMENTS\TOONENGINE\GAME\UNITTEST\UNITTEST.CPP
C:\USERS\PABLOCHU\DOCUMENTS\TOONENGINE\GAME\UNITTEST\X64\DEBUG\VC141.PDB
