^C:\USERS\PABLOCHU\DOCUMENTS\TOONENGINE\GAME\UNITTEST\X64\DEBUG\STDAFX.OBJ|C:\USERS\PABLOCHU\DOCUMENTS\TOONENGINE\GAME\UNITTEST\X64\DEBUG\UNITTEST.OBJ
C:\USERS\PABLOCHU\DOCUMENTS\TOONENGINE\GAME\X64\DEBUG\UNITTEST.EXE
C:\USERS\PABLOCHU\DOCUMENTS\TOONENGINE\GAME\X64\DEBUG\UNITTEST.ILK
C:\USERS\PABLOCHU\DOCUMENTS\TOONENGINE\GAME\X64\DEBUG\UNITTEST.PDB
