^C:\USERS\PABLOCHU\DOCUMENTS\TOONENGINE\GAME\SOURCE\STDAFX.CPP
/c /ISOURCE /I..\EXTERNAL /ZI /JMC /nologo /W3 /WX- /diagnostics:classic /sdl /Od /D _DEBUG /D _WINDOWS /D _UNICODE /D UNICODE /Gm- /EHsc /RTC1 /MDd /GS /fp:precise /Zc:wchar_t /Zc:forScope /Zc:inline /Yc"stdafx.h" /Fp"X64\DEBUG\GAME.PCH" /Fo"X64\DEBUG\\" /Fd"X64\DEBUG\VC141.PDB" /Gd /TP /FC C:\USERS\PABLOCHU\DOCUMENTS\TOONENGINE\GAME\SOURCE\STDAFX.CPP
^C:\USERS\PABLOCHU\DOCUMENTS\TOONENGINE\GAME\SOURCE\MAIN.CPP
/c /ISOURCE /I..\EXTERNAL /ZI /JMC /nologo /W3 /WX- /diagnostics:classic /sdl /Od /D _DEBUG /D _WINDOWS /D _UNICODE /D UNICODE /Gm- /EHsc /RTC1 /MDd /GS /fp:precise /Zc:wchar_t /Zc:forScope /Zc:inline /Yc"stdafx.h" /Fp"X64\DEBUG\GAME.PCH" /Fo"X64\DEBUG\\" /Fd"X64\DEBUG\VC141.PDB" /Gd /TP /FC C:\USERS\PABLOCHU\DOCUMENTS\TOONENGINE\GAME\SOURCE\MAIN.CPP
