^C:\USERS\PABLOCHU\DOCUMENTS\TOONENGINE\GAME\SOURCE\MAIN.CPP|C:\USERS\PABLOCHU\DOCUMENTS\TOONENGINE\GAME\SOURCE\STDAFX.CPP
C:\USERS\PABLOCHU\DOCUMENTS\TOONENGINE\GAME\X64\DEBUG\GAME.PCH
C:\USERS\PABLOCHU\DOCUMENTS\TOONENGINE\GAME\X64\DEBUG\VC141.PDB
C:\USERS\PABLOCHU\DOCUMENTS\TOONENGINE\GAME\X64\DEBUG\VC141.IDB
C:\USERS\PABLOCHU\DOCUMENTS\TOONENGINE\GAME\X64\DEBUG\MAIN.OBJ
C:\USERS\PABLOCHU\DOCUMENTS\TOONENGINE\GAME\X64\DEBUG\STDAFX.OBJ
^C:\USERS\PABLOCHU\DOCUMENTS\TOONENGINE\GAME\SOURCE\STDAFX.CPP
C:\USERS\PABLOCHU\DOCUMENTS\TOONENGINE\GAME\X64\DEBUG\VC141.PDB
^C:\USERS\PABLOCHU\DOCUMENTS\TOONENGINE\GAME\SOURCE\MAIN.CPP
C:\USERS\PABLOCHU\DOCUMENTS\TOONENGINE\GAME\X64\DEBUG\GAME.PCH
C:\USERS\PABLOCHU\DOCUMENTS\TOONENGINE\GAME\X64\DEBUG\VC141.PDB
C:\USERS\PABLOCHU\DOCUMENTS\TOONENGINE\GAME\X64\DEBUG\VC141.IDB
C:\USERS\PABLOCHU\DOCUMENTS\TOONENGINE\GAME\X64\DEBUG\MAIN.OBJ
