^C:\USERS\PABLOCHU\DOCUMENTS\TOONENGINE\GAME\ENGINE\STDAFX.CPP
C:\USERS\PABLOCHU\DOCUMENTS\TOONENGINE\GAME\ENGINE\DEBUG\ENGINE.PCH
C:\USERS\PABLOCHU\DOCUMENTS\TOONENGINE\GAME\ENGINE\DEBUG\ENGINE.PDB
C:\USERS\PABLOCHU\DOCUMENTS\TOONENGINE\GAME\ENGINE\DEBUG\ENGINE.IDB
C:\USERS\PABLOCHU\DOCUMENTS\TOONENGINE\GAME\ENGINE\DEBUG\STDAFX.OBJ
^C:\USERS\PABLOCHU\DOCUMENTS\TOONENGINE\GAME\SOURCE\ANIMATION.CPP|C:\USERS\PABLOCHU\DOCUMENTS\TOONENGINE\GAME\SOURCE\ANIMATIONJOB.CPP|C:\USERS\PABLOCHU\DOCUMENTS\TOONENGINE\GAME\SOURCE\BONETRANSFORM.CPP|C:\USERS\PABLOCHU\DOCUMENTS\TOONENGINE\GAME\SOURCE\CAMERA.CPP|C:\USERS\PABLOCHU\DOCUMENTS\TOONENGINE\GAME\SOURCE\COMPONENT.CPP|C:\USERS\PABLOCHU\DOCUMENTS\TOONENGINE\GAME\SOURCE\COMPONENTS\CHARACTER.CPP|C:\USERS\PABLOCHU\DOCUMENTS\TOONENGINE\GAME\SOURCE\COMPONENTS\FOLLOWCAM.CPP|C:\USERS\PABLOCHU\DOCUMENTS\TOONENGINE\GAME\SOURCE\COMPONENTS\PLAYER.CPP|C:\USERS\PABLOCHU\DOCUMENTS\TOONENGINE\GAME\SOURCE\COMPONENTS\POINTLIGHT.CPP|C:\USERS\PABLOCHU\DOCUMENTS\TOONENGINE\GAME\SOURCE\DBGASSERT.CPP|C:\USERS\PABLOCHU\DOCUMENTS\TOONENGINE\GAME\SOURCE\ENGINEMATH.CPP|C:\USERS\PABLOCHU\DOCUMENTS\TOONENGINE\GAME\SOURCE\ENGINEMEMORY.CPP|C:\USERS\PABLOCHU\DOCUMENTS\TOONENGINE\GAME\SOURCE\GAME.CPP|C:\USERS\PABLOCHU\DOCUMENTS\TOONENGINE\GAME\SOURCE\GRAPHICS.CPP|C:\USERS\PABLOCHU\DOCUMENTS\TOONENGINE\GAME\SOURCE\JOBMANAGER.CPP|C:\USERS\PABLOCHU\DOCUMENTS\TOONENGINE\GAME\SOURCE\JSONUTIL.CPP|C:\USERS\PABLOCHU\DOCUMENTS\TOONENGINE\GAME\SOURCE\MESH.CPP|C:\USERS\PABLOCHU\DOCUMENTS\TOONENGINE\GAME\SOURCE\PROFILER.CPP|C:\USERS\PABLOCHU\DOCUMENTS\TOONENGINE\GAME\SOURCE\RENDERCUBE.CPP|C:\USERS\PABLOCHU\DOCUMENTS\TOONENGINE\GAME\SOURCE\RENDEROBJ.CPP|C:\USERS\PABLOCHU\DOCUMENTS\TOONENGINE\GAME\SOURCE\SHADER.CPP|C:\USERS\PABLOCHU\DOCUMENTS\TOONENGINE\GAME\SOURCE\SKELETON.CPP|C:\USERS\PABLOCHU\DOCUMENTS\TOONENGINE\GAME\SOURCE\SKINNEDOBJ.CPP|C:\USERS\PABLOCHU\DOCUMENTS\TOONENGINE\GAME\SOURCE\STRINGUTIL.CPP|C:\USERS\PABLOCHU\DOCUMENTS\TOONENGINE\GAME\SOURCE\TEXTURE.CPP|C:\USERS\PABLOCHU\DOCUMENTS\TOONENGINE\GAME\SOURCE\VERTEXBUFFER.CPP|C:\USERS\PABLOCHU\DOCUMENTS\TOONENGINE\GAME\SOURCE\WORKER.CPP
C:\USERS\PABLOCHU\DOCUMENTS\TOONENGINE\GAME\ENGINE\DEBUG\ENGINE.PDB
C:\USERS\PABLOCHU\DOCUMENTS\TOONENGINE\GAME\ENGINE\DEBUG\ENGINE.IDB
C:\USERS\PABLOCHU\DOCUMENTS\TOONENGINE\GAME\ENGINE\DEBUG\RENDEROBJ.OBJ
C:\USERS\PABLOCHU\DOCUMENTS\TOONENGINE\GAME\ENGINE\DEBUG\RENDERCUBE.OBJ
C:\USERS\PABLOCHU\DOCUMENTS\TOONENGINE\GAME\ENGINE\DEBUG\PROFILER.OBJ
C:\USERS\PABLOCHU\DOCUMENTS\TOONENGINE\GAME\ENGINE\DEBUG\MESH.OBJ
C:\USERS\PABLOCHU\DOCUMENTS\TOONENGINE\GAME\ENGINE\DEBUG\JSONUTIL.OBJ
C:\USERS\PABLOCHU\DOCUMENTS\TOONENGINE\GAME\ENGINE\DEBUG\JOBMANAGER.OBJ
C:\USERS\PABLOCHU\DOCUMENTS\TOONENGINE\GAME\ENGINE\DEBUG\GRAPHICS.OBJ
C:\USERS\PABLOCHU\DOCUMENTS\TOONENGINE\GAME\ENGINE\DEBUG\GAME.OBJ
C:\USERS\PABLOCHU\DOCUMENTS\TOONENGINE\GAME\ENGINE\DEBUG\ENGINEMEMORY.OBJ
C:\USERS\PABLOCHU\DOCUMENTS\TOONENGINE\GAME\ENGINE\DEBUG\ENGINEMATH.OBJ
C:\USERS\PABLOCHU\DOCUMENTS\TOONENGINE\GAME\ENGINE\DEBUG\DBGASSERT.OBJ
C:\USERS\PABLOCHU\DOCUMENTS\TOONENGINE\GAME\ENGINE\DEBUG\POINTLIGHT.OBJ
C:\USERS\PABLOCHU\DOCUMENTS\TOONENGINE\GAME\ENGINE\DEBUG\CHARACTER.OBJ
C:\USERS\PABLOCHU\DOCUMENTS\TOONENGINE\GAME\ENGINE\DEBUG\COMPONENT.OBJ
C:\USERS\PABLOCHU\DOCUMENTS\TOONENGINE\GAME\ENGINE\DEBUG\CAMERA.OBJ
C:\USERS\PABLOCHU\DOCUMENTS\TOONENGINE\GAME\ENGINE\DEBUG\BONETRANSFORM.OBJ
C:\USERS\PABLOCHU\DOCUMENTS\TOONENGINE\GAME\ENGINE\DEBUG\ANIMATIONJOB.OBJ
C:\USERS\PABLOCHU\DOCUMENTS\TOONENGINE\GAME\ENGINE\DEBUG\ANIMATION.OBJ
C:\USERS\PABLOCHU\DOCUMENTS\TOONENGINE\GAME\ENGINE\DEBUG\WORKER.OBJ
C:\USERS\PABLOCHU\DOCUMENTS\TOONENGINE\GAME\ENGINE\DEBUG\VERTEXBUFFER.OBJ
C:\USERS\PABLOCHU\DOCUMENTS\TOONENGINE\GAME\ENGINE\DEBUG\TEXTURE.OBJ
C:\USERS\PABLOCHU\DOCUMENTS\TOONENGINE\GAME\ENGINE\DEBUG\STRINGUTIL.OBJ
C:\USERS\PABLOCHU\DOCUMENTS\TOONENGINE\GAME\ENGINE\DEBUG\SKINNEDOBJ.OBJ
C:\USERS\PABLOCHU\DOCUMENTS\TOONENGINE\GAME\ENGINE\DEBUG\SKELETON.OBJ
C:\USERS\PABLOCHU\DOCUMENTS\TOONENGINE\GAME\ENGINE\DEBUG\SHADER.OBJ
^C:\USERS\PABLOCHU\DOCUMENTS\TOONENGINE\GAME\SOURCE\BONETRANSFORM.CPP
C:\USERS\PABLOCHU\DOCUMENTS\TOONENGINE\GAME\ENGINE\DEBUG\BONETRANSFORM.OBJ
^C:\USERS\PABLOCHU\DOCUMENTS\TOONENGINE\GAME\SOURCE\CAMERA.CPP
C:\USERS\PABLOCHU\DOCUMENTS\TOONENGINE\GAME\ENGINE\DEBUG\CAMERA.OBJ
^C:\USERS\PABLOCHU\DOCUMENTS\TOONENGINE\GAME\SOURCE\COMPONENT.CPP
C:\USERS\PABLOCHU\DOCUMENTS\TOONENGINE\GAME\ENGINE\DEBUG\COMPONENT.OBJ
^C:\USERS\PABLOCHU\DOCUMENTS\TOONENGINE\GAME\SOURCE\DBGASSERT.CPP
C:\USERS\PABLOCHU\DOCUMENTS\TOONENGINE\GAME\ENGINE\DEBUG\DBGASSERT.OBJ
^C:\USERS\PABLOCHU\DOCUMENTS\TOONENGINE\GAME\SOURCE\ENGINEMATH.CPP
C:\USERS\PABLOCHU\DOCUMENTS\TOONENGINE\GAME\ENGINE\DEBUG\ENGINEMATH.OBJ
^C:\USERS\PABLOCHU\DOCUMENTS\TOONENGINE\GAME\SOURCE\ENGINEMEMORY.CPP
C:\USERS\PABLOCHU\DOCUMENTS\TOONENGINE\GAME\ENGINE\DEBUG\ENGINEMEMORY.OBJ
^C:\USERS\PABLOCHU\DOCUMENTS\TOONENGINE\GAME\SOURCE\GRAPHICS.CPP
C:\USERS\PABLOCHU\DOCUMENTS\TOONENGINE\GAME\ENGINE\DEBUG\GRAPHICS.OBJ
^C:\USERS\PABLOCHU\DOCUMENTS\TOONENGINE\GAME\SOURCE\JOBMANAGER.CPP
C:\USERS\PABLOCHU\DOCUMENTS\TOONENGINE\GAME\ENGINE\DEBUG\JOBMANAGER.OBJ
^C:\USERS\PABLOCHU\DOCUMENTS\TOONENGINE\GAME\SOURCE\JSONUTIL.CPP
C:\USERS\PABLOCHU\DOCUMENTS\TOONENGINE\GAME\ENGINE\DEBUG\JSONUTIL.OBJ
^C:\USERS\PABLOCHU\DOCUMENTS\TOONENGINE\GAME\SOURCE\MESH.CPP
C:\USERS\PABLOCHU\DOCUMENTS\TOONENGINE\GAME\ENGINE\DEBUG\MESH.OBJ
^C:\USERS\PABLOCHU\DOCUMENTS\TOONENGINE\GAME\SOURCE\PROFILER.CPP
C:\USERS\PABLOCHU\DOCUMENTS\TOONENGINE\GAME\ENGINE\DEBUG\PROFILER.OBJ
^C:\USERS\PABLOCHU\DOCUMENTS\TOONENGINE\GAME\SOURCE\RENDERCUBE.CPP
C:\USERS\PABLOCHU\DOCUMENTS\TOONENGINE\GAME\ENGINE\DEBUG\RENDERCUBE.OBJ
^C:\USERS\PABLOCHU\DOCUMENTS\TOONENGINE\GAME\SOURCE\RENDEROBJ.CPP
C:\USERS\PABLOCHU\DOCUMENTS\TOONENGINE\GAME\ENGINE\DEBUG\RENDEROBJ.OBJ
^C:\USERS\PABLOCHU\DOCUMENTS\TOONENGINE\GAME\SOURCE\SHADER.CPP
C:\USERS\PABLOCHU\DOCUMENTS\TOONENGINE\GAME\ENGINE\DEBUG\SHADER.OBJ
^C:\USERS\PABLOCHU\DOCUMENTS\TOONENGINE\GAME\SOURCE\SKELETON.CPP
C:\USERS\PABLOCHU\DOCUMENTS\TOONENGINE\GAME\ENGINE\DEBUG\SKELETON.OBJ
^C:\USERS\PABLOCHU\DOCUMENTS\TOONENGINE\GAME\SOURCE\SKINNEDOBJ.CPP
C:\USERS\PABLOCHU\DOCUMENTS\TOONENGINE\GAME\ENGINE\DEBUG\SKINNEDOBJ.OBJ
^C:\USERS\PABLOCHU\DOCUMENTS\TOONENGINE\GAME\SOURCE\STRINGUTIL.CPP
C:\USERS\PABLOCHU\DOCUMENTS\TOONENGINE\GAME\ENGINE\DEBUG\STRINGUTIL.OBJ
^C:\USERS\PABLOCHU\DOCUMENTS\TOONENGINE\GAME\SOURCE\TEXTURE.CPP
C:\USERS\PABLOCHU\DOCUMENTS\TOONENGINE\GAME\ENGINE\DEBUG\TEXTURE.OBJ
^C:\USERS\PABLOCHU\DOCUMENTS\TOONENGINE\GAME\SOURCE\VERTEXBUFFER.CPP
C:\USERS\PABLOCHU\DOCUMENTS\TOONENGINE\GAME\ENGINE\DEBUG\VERTEXBUFFER.OBJ
^C:\USERS\PABLOCHU\DOCUMENTS\TOONENGINE\GAME\SOURCE\WORKER.CPP
C:\USERS\PABLOCHU\DOCUMENTS\TOONENGINE\GAME\ENGINE\DEBUG\WORKER.OBJ
^C:\USERS\PABLOCHU\DOCUMENTS\TOONENGINE\GAME\SOURCE\ANIMATION.CPP|C:\USERS\PABLOCHU\DOCUMENTS\TOONENGINE\GAME\SOURCE\ANIMATIONJOB.CPP|C:\USERS\PABLOCHU\DOCUMENTS\TOONENGINE\GAME\SOURCE\COMPONENTS\CHARACTER.CPP|C:\USERS\PABLOCHU\DOCUMENTS\TOONENGINE\GAME\SOURCE\COMPONENTS\POINTLIGHT.CPP|C:\USERS\PABLOCHU\DOCUMENTS\TOONENGINE\GAME\SOURCE\GAME.CPP
C:\USERS\PABLOCHU\DOCUMENTS\TOONENGINE\GAME\ENGINE\DEBUG\ENGINE.PDB
C:\USERS\PABLOCHU\DOCUMENTS\TOONENGINE\GAME\ENGINE\DEBUG\ENGINE.IDB
C:\USERS\PABLOCHU\DOCUMENTS\TOONENGINE\GAME\ENGINE\DEBUG\GAME.OBJ
C:\USERS\PABLOCHU\DOCUMENTS\TOONENGINE\GAME\ENGINE\DEBUG\POINTLIGHT.OBJ
C:\USERS\PABLOCHU\DOCUMENTS\TOONENGINE\GAME\ENGINE\DEBUG\CHARACTER.OBJ
C:\USERS\PABLOCHU\DOCUMENTS\TOONENGINE\GAME\ENGINE\DEBUG\ANIMATIONJOB.OBJ
C:\USERS\PABLOCHU\DOCUMENTS\TOONENGINE\GAME\ENGINE\DEBUG\ANIMATION.OBJ
^C:\USERS\PABLOCHU\DOCUMENTS\TOONENGINE\GAME\SOURCE\ANIMATION.CPP
C:\USERS\PABLOCHU\DOCUMENTS\TOONENGINE\GAME\ENGINE\DEBUG\ENGINE.PDB
^C:\USERS\PABLOCHU\DOCUMENTS\TOONENGINE\GAME\SOURCE\ANIMATIONJOB.CPP
C:\USERS\PABLOCHU\DOCUMENTS\TOONENGINE\GAME\ENGINE\DEBUG\ENGINE.PDB
^C:\USERS\PABLOCHU\DOCUMENTS\TOONENGINE\GAME\SOURCE\COMPONENTS\CHARACTER.CPP
C:\USERS\PABLOCHU\DOCUMENTS\TOONENGINE\GAME\ENGINE\DEBUG\ENGINE.PDB
^C:\USERS\PABLOCHU\DOCUMENTS\TOONENGINE\GAME\SOURCE\COMPONENTS\POINTLIGHT.CPP
C:\USERS\PABLOCHU\DOCUMENTS\TOONENGINE\GAME\ENGINE\DEBUG\ENGINE.PDB
^C:\USERS\PABLOCHU\DOCUMENTS\TOONENGINE\GAME\SOURCE\GAME.CPP
C:\USERS\PABLOCHU\DOCUMENTS\TOONENGINE\GAME\ENGINE\DEBUG\ENGINE.PDB
