^C:\USERS\PABLOCHU\DOCUMENTS\TOONENGINE\GAME\ENGINE\DEBUG\ANIMATION.OBJ|C:\USERS\PABLOCHU\DOCUMENTS\TOONENGINE\GAME\ENGINE\DEBUG\ANIMATIONJOB.OBJ|C:\USERS\PABLOCHU\DOCUMENTS\TOONENGINE\GAME\ENGINE\DEBUG\BONETRANSFORM.OBJ|C:\USERS\PABLOCHU\DOCUMENTS\TOONENGINE\GAME\ENGINE\DEBUG\CAMERA.OBJ|C:\USERS\PABLOCHU\DOCUMENTS\TOONENGINE\GAME\ENGINE\DEBUG\CHARACTER.OBJ|C:\USERS\PABLOCHU\DOCUMENTS\TOONENGINE\GAME\ENGINE\DEBUG\COMPONENT.OBJ|C:\USERS\PABLOCHU\DOCUMENTS\TOONENGINE\GAME\ENGINE\DEBUG\DBGASSERT.OBJ|C:\USERS\PABLOCHU\DOCUMENTS\TOONENGINE\GAME\ENGINE\DEBUG\ENGINEMATH.OBJ|C:\USERS\PABLOCHU\DOCUMENTS\TOONENGINE\GAME\ENGINE\DEBUG\ENGINEMEMORY.OBJ|C:\USERS\PABLOCHU\DOCUMENTS\TOONENGINE\GAME\ENGINE\DEBUG\GAME.OBJ|C:\USERS\PABLOCHU\DOCUMENTS\TOONENGINE\GAME\ENGINE\DEBUG\GRAPHICS.OBJ|C:\USERS\PABLOCHU\DOCUMENTS\TOONENGINE\GAME\ENGINE\DEBUG\JOBMANAGER.OBJ|C:\USERS\PABLOCHU\DOCUMENTS\TOONENGINE\GAME\ENGINE\DEBUG\JSONUTIL.OBJ|C:\USERS\PABLOCHU\DOCUMENTS\TOONENGINE\GAME\ENGINE\DEBUG\MESH.OBJ|C:\USERS\PABLOCHU\DOCUMENTS\TOONENGINE\GAME\ENGINE\DEBUG\POINTLIGHT.OBJ|C:\USERS\PABLOCHU\DOCUMENTS\TOONENGINE\GAME\ENGINE\DEBUG\PROFILER.OBJ|C:\USERS\PABLOCHU\DOCUMENTS\TOONENGINE\GAME\ENGINE\DEBUG\RENDERCUBE.OBJ|C:\USERS\PABLOCHU\DOCUMENTS\TOONENGINE\GAME\ENGINE\DEBUG\RENDEROBJ.OBJ|C:\USERS\PABLOCHU\DOCUMENTS\TOONENGINE\GAME\ENGINE\DEBUG\SHADER.OBJ|C:\USERS\PABLOCHU\DOCUMENTS\TOONENGINE\GAME\ENGINE\DEBUG\SKELETON.OBJ|C:\USERS\PABLOCHU\DOCUMENTS\TOONENGINE\GAME\ENGINE\DEBUG\SKINNEDOBJ.OBJ|C:\USERS\PABLOCHU\DOCUMENTS\TOONENGINE\GAME\ENGINE\DEBUG\STDAFX.OBJ|C:\USERS\PABLOCHU\DOCUMENTS\TOONENGINE\GAME\ENGINE\DEBUG\STRINGUTIL.OBJ|C:\USERS\PABLOCHU\DOCUMENTS\TOONENGINE\GAME\ENGINE\DEBUG\TEXTURE.OBJ|C:\USERS\PABLOCHU\DOCUMENTS\TOONENGINE\GAME\ENGINE\DEBUG\VERTEXBUFFER.OBJ|C:\USERS\PABLOCHU\DOCUMENTS\TOONENGINE\GAME\ENGINE\DEBUG\WORKER.OBJ
C:\USERS\PABLOCHU\DOCUMENTS\TOONENGINE\EXTERNAL\DIRECTXTK\BIN\DESKTOP_2015\WIN32\DEBUG\DIRECTXTK.LIB
C:\WINDOWS\SYSTEM32\TZRES.DLL
C:\USERS\PABLOCHU\DOCUMENTS\TOONENGINE\GAME\ENGINE\DEBUG\ANIMATION.OBJ
C:\USERS\PABLOCHU\DOCUMENTS\TOONENGINE\GAME\ENGINE\DEBUG\ANIMATIONJOB.OBJ
C:\USERS\PABLOCHU\DOCUMENTS\TOONENGINE\GAME\ENGINE\DEBUG\BONETRANSFORM.OBJ
C:\USERS\PABLOCHU\DOCUMENTS\TOONENGINE\GAME\ENGINE\DEBUG\CAMERA.OBJ
C:\USERS\PABLOCHU\DOCUMENTS\TOONENGINE\GAME\ENGINE\DEBUG\COMPONENT.OBJ
C:\USERS\PABLOCHU\DOCUMENTS\TOONENGINE\GAME\ENGINE\DEBUG\CHARACTER.OBJ
C:\USERS\PABLOCHU\DOCUMENTS\TOONENGINE\GAME\ENGINE\DEBUG\POINTLIGHT.OBJ
C:\USERS\PABLOCHU\DOCUMENTS\TOONENGINE\GAME\ENGINE\DEBUG\DBGASSERT.OBJ
C:\USERS\PABLOCHU\DOCUMENTS\TOONENGINE\GAME\ENGINE\DEBUG\ENGINEMATH.OBJ
C:\USERS\PABLOCHU\DOCUMENTS\TOONENGINE\GAME\ENGINE\DEBUG\ENGINEMEMORY.OBJ
C:\USERS\PABLOCHU\DOCUMENTS\TOONENGINE\GAME\ENGINE\DEBUG\GAME.OBJ
C:\USERS\PABLOCHU\DOCUMENTS\TOONENGINE\GAME\ENGINE\DEBUG\GRAPHICS.OBJ
C:\USERS\PABLOCHU\DOCUMENTS\TOONENGINE\GAME\ENGINE\DEBUG\JOBMANAGER.OBJ
C:\USERS\PABLOCHU\DOCUMENTS\TOONENGINE\GAME\ENGINE\DEBUG\JSONUTIL.OBJ
C:\USERS\PABLOCHU\DOCUMENTS\TOONENGINE\GAME\ENGINE\DEBUG\MESH.OBJ
C:\USERS\PABLOCHU\DOCUMENTS\TOONENGINE\GAME\ENGINE\DEBUG\PROFILER.OBJ
C:\USERS\PABLOCHU\DOCUMENTS\TOONENGINE\GAME\ENGINE\DEBUG\RENDERCUBE.OBJ
C:\USERS\PABLOCHU\DOCUMENTS\TOONENGINE\GAME\ENGINE\DEBUG\RENDEROBJ.OBJ
C:\USERS\PABLOCHU\DOCUMENTS\TOONENGINE\GAME\ENGINE\DEBUG\SHADER.OBJ
C:\USERS\PABLOCHU\DOCUMENTS\TOONENGINE\GAME\ENGINE\DEBUG\SKELETON.OBJ
C:\USERS\PABLOCHU\DOCUMENTS\TOONENGINE\GAME\ENGINE\DEBUG\SKINNEDOBJ.OBJ
C:\USERS\PABLOCHU\DOCUMENTS\TOONENGINE\GAME\ENGINE\DEBUG\STRINGUTIL.OBJ
C:\USERS\PABLOCHU\DOCUMENTS\TOONENGINE\GAME\ENGINE\DEBUG\TEXTURE.OBJ
C:\USERS\PABLOCHU\DOCUMENTS\TOONENGINE\GAME\ENGINE\DEBUG\VERTEXBUFFER.OBJ
C:\USERS\PABLOCHU\DOCUMENTS\TOONENGINE\GAME\ENGINE\DEBUG\WORKER.OBJ
C:\USERS\PABLOCHU\DOCUMENTS\TOONENGINE\GAME\ENGINE\DEBUG\STDAFX.OBJ
C:\WINDOWS\GLOBALIZATION\SORTING\SORTDEFAULT.NLS
