^C:\USERS\PABLOCHU\DOCUMENTS\PACE\GAME\DEBUG\ANIMATION.OBJ|C:\USERS\PABLOCHU\DOCUMENTS\PACE\GAME\DEBUG\ANIMATIONJOB.OBJ|C:\USERS\PABLOCHU\DOCUMENTS\PACE\GAME\DEBUG\BONETRANSFORM.OBJ|C:\USERS\PABLOCHU\DOCUMENTS\PACE\GAME\DEBUG\CAMERA.OBJ|C:\USERS\PABLOCHU\DOCUMENTS\PACE\GAME\DEBUG\CHARACTER.OBJ|C:\USERS\PABLOCHU\DOCUMENTS\PACE\GAME\DEBUG\COMPONENT.OBJ|C:\USERS\PABLOCHU\DOCUMENTS\PACE\GAME\DEBUG\DBGASSERT.OBJ|C:\USERS\PABLOCHU\DOCUMENTS\PACE\GAME\DEBUG\ENGINEMATH.OBJ|C:\USERS\PABLOCHU\DOCUMENTS\PACE\GAME\DEBUG\ENGINEMEMORY.OBJ|C:\USERS\PABLOCHU\DOCUMENTS\PACE\GAME\DEBUG\GAME.OBJ|C:\USERS\PABLOCHU\DOCUMENTS\PACE\GAME\DEBUG\GAME.RES|C:\USERS\PABLOCHU\DOCUMENTS\PACE\GAME\DEBUG\GRAPHICS.OBJ|C:\USERS\PABLOCHU\DOCUMENTS\PACE\GAME\DEBUG\JOBMANAGER.OBJ|C:\USERS\PABLOCHU\DOCUMENTS\PACE\GAME\DEBUG\JSONUTIL.OBJ|C:\USERS\PABLOCHU\DOCUMENTS\PACE\GAME\DEBUG\MAIN.OBJ|C:\USERS\PABLOCHU\DOCUMENTS\PACE\GAME\DEBUG\MESH.OBJ|C:\USERS\PABLOCHU\DOCUMENTS\PACE\GAME\DEBUG\POINTLIGHT.OBJ|C:\USERS\PABLOCHU\DOCUMENTS\PACE\GAME\DEBUG\PROFILER.OBJ|C:\USERS\PABLOCHU\DOCUMENTS\PACE\GAME\DEBUG\RENDERCUBE.OBJ|C:\USERS\PABLOCHU\DOCUMENTS\PACE\GAME\DEBUG\RENDEROBJ.OBJ|C:\USERS\PABLOCHU\DOCUMENTS\PACE\GAME\DEBUG\SHADER.OBJ|C:\USERS\PABLOCHU\DOCUMENTS\PACE\GAME\DEBUG\SKELETON.OBJ|C:\USERS\PABLOCHU\DOCUMENTS\PACE\GAME\DEBUG\SKINNEDOBJ.OBJ|C:\USERS\PABLOCHU\DOCUMENTS\PACE\GAME\DEBUG\STDAFX.OBJ|C:\USERS\PABLOCHU\DOCUMENTS\PACE\GAME\DEBUG\STRINGUTIL.OBJ|C:\USERS\PABLOCHU\DOCUMENTS\PACE\GAME\DEBUG\TEXTURE.OBJ|C:\USERS\PABLOCHU\DOCUMENTS\PACE\GAME\DEBUG\VERTEXBUFFER.OBJ|C:\USERS\PABLOCHU\DOCUMENTS\PACE\GAME\DEBUG\WORKER.OBJ
C:\USERS\PABLOCHU\DOCUMENTS\PACE\EXTERNAL\DIRECTXTK\BIN\DESKTOP_2015\WIN32\DEBUG\DIRECTXTK.LIB
C:\PROGRAM FILES (X86)\WINDOWS KITS\10\LIB\10.0.17134.0\UM\X86\KERNEL32.LIB
C:\PROGRAM FILES (X86)\WINDOWS KITS\10\LIB\10.0.17134.0\UM\X86\USER32.LIB
C:\PROGRAM FILES (X86)\WINDOWS KITS\10\LIB\10.0.17134.0\UM\X86\GDI32.LIB
C:\PROGRAM FILES (X86)\WINDOWS KITS\10\LIB\10.0.17134.0\UM\X86\WINSPOOL.LIB
C:\PROGRAM FILES (X86)\WINDOWS KITS\10\LIB\10.0.17134.0\UM\X86\COMDLG32.LIB
C:\PROGRAM FILES (X86)\WINDOWS KITS\10\LIB\10.0.17134.0\UM\X86\ADVAPI32.LIB
C:\PROGRAM FILES (X86)\WINDOWS KITS\10\LIB\10.0.17134.0\UM\X86\SHELL32.LIB
C:\PROGRAM FILES (X86)\WINDOWS KITS\10\LIB\10.0.17134.0\UM\X86\OLE32.LIB
C:\PROGRAM FILES (X86)\WINDOWS KITS\10\LIB\10.0.17134.0\UM\X86\OLEAUT32.LIB
C:\PROGRAM FILES (X86)\WINDOWS KITS\10\LIB\10.0.17134.0\UM\X86\UUID.LIB
C:\PROGRAM FILES (X86)\WINDOWS KITS\10\LIB\10.0.17134.0\UM\X86\ODBC32.LIB
C:\PROGRAM FILES (X86)\WINDOWS KITS\10\LIB\10.0.17134.0\UM\X86\ODBCCP32.LIB
C:\USERS\PABLOCHU\DOCUMENTS\PACE\GAME\DEBUG\GAME.RES
C:\USERS\PABLOCHU\DOCUMENTS\PACE\GAME\DEBUG\ANIMATION.OBJ
C:\USERS\PABLOCHU\DOCUMENTS\PACE\GAME\DEBUG\ANIMATIONJOB.OBJ
C:\USERS\PABLOCHU\DOCUMENTS\PACE\GAME\DEBUG\BONETRANSFORM.OBJ
C:\USERS\PABLOCHU\DOCUMENTS\PACE\GAME\DEBUG\CAMERA.OBJ
C:\USERS\PABLOCHU\DOCUMENTS\PACE\GAME\DEBUG\COMPONENT.OBJ
C:\USERS\PABLOCHU\DOCUMENTS\PACE\GAME\DEBUG\CHARACTER.OBJ
C:\USERS\PABLOCHU\DOCUMENTS\PACE\GAME\DEBUG\POINTLIGHT.OBJ
C:\USERS\PABLOCHU\DOCUMENTS\PACE\GAME\DEBUG\DBGASSERT.OBJ
C:\USERS\PABLOCHU\DOCUMENTS\PACE\GAME\DEBUG\ENGINEMATH.OBJ
C:\USERS\PABLOCHU\DOCUMENTS\PACE\GAME\DEBUG\ENGINEMEMORY.OBJ
C:\USERS\PABLOCHU\DOCUMENTS\PACE\GAME\DEBUG\GAME.OBJ
C:\USERS\PABLOCHU\DOCUMENTS\PACE\GAME\DEBUG\GRAPHICS.OBJ
C:\USERS\PABLOCHU\DOCUMENTS\PACE\GAME\DEBUG\JOBMANAGER.OBJ
C:\USERS\PABLOCHU\DOCUMENTS\PACE\GAME\DEBUG\JSONUTIL.OBJ
C:\USERS\PABLOCHU\DOCUMENTS\PACE\GAME\DEBUG\MAIN.OBJ
C:\USERS\PABLOCHU\DOCUMENTS\PACE\GAME\DEBUG\MESH.OBJ
C:\USERS\PABLOCHU\DOCUMENTS\PACE\GAME\DEBUG\PROFILER.OBJ
C:\USERS\PABLOCHU\DOCUMENTS\PACE\GAME\DEBUG\RENDERCUBE.OBJ
C:\USERS\PABLOCHU\DOCUMENTS\PACE\GAME\DEBUG\RENDEROBJ.OBJ
C:\USERS\PABLOCHU\DOCUMENTS\PACE\GAME\DEBUG\SHADER.OBJ
C:\USERS\PABLOCHU\DOCUMENTS\PACE\GAME\DEBUG\SKELETON.OBJ
C:\USERS\PABLOCHU\DOCUMENTS\PACE\GAME\DEBUG\SKINNEDOBJ.OBJ
C:\USERS\PABLOCHU\DOCUMENTS\PACE\GAME\DEBUG\STDAFX.OBJ
C:\USERS\PABLOCHU\DOCUMENTS\PACE\GAME\DEBUG\STRINGUTIL.OBJ
C:\USERS\PABLOCHU\DOCUMENTS\PACE\GAME\DEBUG\TEXTURE.OBJ
C:\USERS\PABLOCHU\DOCUMENTS\PACE\GAME\DEBUG\VERTEXBUFFER.OBJ
C:\USERS\PABLOCHU\DOCUMENTS\PACE\GAME\DEBUG\WORKER.OBJ
C:\WINDOWS\SYSTEM32\TZRES.DLL
C:\WINDOWS\GLOBALIZATION\SORTING\SORTDEFAULT.NLS
C:\PROGRAM FILES (X86)\MICROSOFT VISUAL STUDIO\2017\COMMUNITY\VC\TOOLS\MSVC\14.15.26726\LIB\X86\MSVCPRTD.LIB
C:\PROGRAM FILES (X86)\MICROSOFT VISUAL STUDIO\2017\COMMUNITY\VC\TOOLS\MSVC\14.15.26726\LIB\X86\MSVCRTD.LIB
C:\PROGRAM FILES (X86)\MICROSOFT VISUAL STUDIO\2017\COMMUNITY\VC\TOOLS\MSVC\14.15.26726\LIB\X86\OLDNAMES.LIB
C:\PROGRAM FILES (X86)\WINDOWS KITS\10\LIB\10.0.17134.0\UM\X86\D3D11.LIB
C:\PROGRAM FILES (X86)\WINDOWS KITS\10\LIB\10.0.17134.0\UM\X86\D3DCOMPILER.LIB
C:\PROGRAM FILES (X86)\WINDOWS KITS\10\LIB\10.0.17134.0\UM\X86\DXGUID.LIB
C:\PROGRAM FILES (X86)\MICROSOFT VISUAL STUDIO\2017\COMMUNITY\VC\TOOLS\MSVC\14.15.26726\LIB\X86\VCRUNTIMED.LIB
C:\PROGRAM FILES (X86)\WINDOWS KITS\10\LIB\10.0.17134.0\UCRT\X86\UCRTD.LIB
C:\PROGRAM FILES (X86)\MICROSOFT VISUAL STUDIO\2017\COMMUNITY\VC\TOOLS\MSVC\14.15.26726\BIN\HOSTX86\X86\LINK.EXE
C:\PROGRAM FILES (X86)\WINDOWS KITS\10\BIN\10.0.17134.0\X86\RC.EXE
C:\PROGRAM FILES (X86)\MICROSOFT VISUAL STUDIO\2017\COMMUNITY\VC\TOOLS\MSVC\14.15.26726\BIN\HOSTX86\X86\CVTRES.EXE
